module gitlab.com/go-yp/grpc-counter

go 1.14

require (
	github.com/desertbit/timer v0.0.0-20180107155436-c41aec40b27f // indirect
	github.com/golang/protobuf v1.3.5
	github.com/gorilla/websocket v1.4.2 // indirect
	github.com/improbable-eng/grpc-web v0.12.0
	github.com/rs/cors v1.7.0 // indirect
	golang.org/x/net v0.0.0-20190311183353-d8887717615a
	google.golang.org/grpc v1.28.1
)
